{
  "moduleFileExtensions": ["js", "json", "ts"],
  "rootDir": "../../test/e2e/",
  "testEnvironment": "node",
  "testRegex": "test.ts$",
  "transform": {
    "^.+\\.(t|j)s$": "ts-jest"
  },
  "reporters": [
    "default",
    ["jest-html-reporter", {
        "pageTitle": "Test Report",
        "outputPath": "./test/testReport/e2eTestReport.html"
    }]
  ]
}
